{
  "images" : [
    {
      "idiom" : "iphone",
      "scale" : "1x",
      "filename" : "DismissH.png"
    },
    {
      "idiom" : "iphone",
      "scale" : "2x",
      "filename" : "DismissH@2x.png"
    },
    {
      "idiom" : "iphone",
      "scale" : "3x",
      "filename" : "DismissH@3x.png"
    },
    {
      "idiom" : "ipad",
      "filename" : "DismissH~ipad.png",
      "unassigned" : true,
      "scale" : "1x"
    },
    {
      "idiom" : "ipad",
      "filename" : "DismissH~ipad@2x.png",
      "unassigned" : true,
      "scale" : "2x"
    }
  ],
  "info" : {
    "version" : 1,
    "author" : "xcode"
  }
}